{
    "fluentMethods": true,
    "relationships": [],
    "fields": [
        {
            "fieldName": "name",
            "fieldType": "String",
            "fieldValidateRules": [
                "required",
                "maxlength",
                "pattern"
            ],
            "fieldValidateRulesMaxlength": "30",
            "fieldValidateRulesPattern": "^[a-zA-Z0-9 _-]*$"
        },
        {
            "fieldName": "code",
            "fieldType": "String",
            "fieldValidateRules": [
                "required",
                "maxlength",
                "pattern"
            ],
            "fieldValidateRulesMaxlength": "20",
            "fieldValidateRulesPattern": "^[a-zA-Z0-9 _-]*$"
        },
        {
            "fieldName": "active",
            "fieldType": "Boolean"
        },
        {
            "fieldName": "description",
            "fieldType": "String"
        }
    ],
    "changelogDate": "20170919055228",
    "dto": "no",
    "service": "serviceImpl",
    "entityTableName": "designation",
    "jpaMetamodelFiltering": false,
    "pagination": "pagination"
}
